{
    "AUTHOR" : "drgnak",
    "SHORT" : "Get 2b images",
    "DESCRIPTION" : "Get 2b images from safebooru",
    "DISABLED" : false,
    "NAME" : "2b",
    "TAGS" : ["images", "2b", "danbooru"],
    "INSTALL_MSG" : ""
}